﻿{
	"EchoToken":"12345",
	"Target":"Test|Production",
	"Version":"2.0.0",
	"PrimaryLangID":"en",
	"POS":{
		"Source":{
			"ISOCountry":"USVVV",
			"ISOCurrency":"USDSSS"
		}
	},
	"Passengers":[
		{
			"Quantity":4,
			"Category":{
			"Value":"Adult"
			}
		},
		{
			"Quantity":2,
			"Category":{
			"Value":"Child|Infant"
			}
		}
	],
	"ServiceType":{
		"Value":"Hourly|Millage|Shuttle|SharedTransportation"
	},
	"PassengerPrefs":{
		"MaximumPassengers":2,
		"MeetAndGreetInd":true
	},
	"RateQualifiers":[
		{
			"AccountID":"001UNIF",
			"PromotionCode":"UFCJV",
			"RateQualifierValue":"SuperShuttle|ExecuCar|SuperShuttle_ExecuCar|Taxi"
		}
	],
	"DisabilityInfo":{
		"RequiredInd":false
	},
	"TPA_Extensions":{
		"Source":"Expedia.com",
		"Device":"iPhone"
	},
	"Service":{
		"Pickup":{
			"DateTime":"2012-12-31 18:15",
			"Address":{
			"AddressLine":"123 W Summer Ave",
			"CityName":"Pasadena",
			"PostalCode":"91101",
			"LocationName":"Hilton",
			"LocationType":{
				"Value":"Other_"
			},
			"StateProv":{
				"StateCode":"CA"
			}
			}
		},
		"Dropoff":{
			"Address":{
			"AddressLine":"123 W Summer Ave",
			"CityName":"Pasadena",
			"PostalCode":"91101",
			"LocationName":"Hilton",
			"LocationType":{
				"Value":"Other_"
			},
			"StateProv":{
				"StateCode":"CA"
			}
			}
		},
		"Stops":{
			"Stops":[
			{
				"AirportInfo":{
					"Departure":{
						"LocationCode":"LAX"
					}
				}
			},
			{
				"AirportInfo":{
					"Arrival":{
						"LocationCode":"LAX"
					}
				}
			}
			]
		}
	}
}