﻿{
	"EchoToken":"12345",
	"Target":"Test|Production",
	"Version":"2.0.0",
	"PrimaryLangID":"en",
	"POS":{
		"Source":{
			"ISOCountry":"US",
			"ISOCurrency":"USD"
		}
	},
	"Reference":{
		"Type":"???",
		"ID":"-12345"
	},
	"TPA_Extensions":{
		"RateQualifiers":[
		{
			"RateQualifierValue":"SuperShuttle|ExecuCar|SuperShuttle_ExecuCar|Taxi"
		}
		]
	}

}